<?xml version="1.0" encoding="UTF-8"?>
<!DOCTYPE svg PUBLIC "-//W3C//DTD SVG 1.0//EN" "http://www.w3.org/TR/2001/REC-SVG-20010904/DTD/svg10.dtd">
<!-- Creator: CorelDRAW 2017 -->
<svg xmlns="http://www.w3.org/2000/svg" xml:space="preserve" width="184.15mm" height="79.6012mm" version="1.0" style="shape-rendering:geometricPrecision; text-rendering:geometricPrecision; image-rendering:optimizeQuality; fill-rule:evenodd; clip-rule:evenodd"
viewBox="0 0 2453.51 1060.56"
 xmlns:xlink="http://www.w3.org/1999/xlink">
 <defs>
  <style type="text/css">
   <![CDATA[
    .fil0 {fill:black}
   ]]>
  </style>
 </defs>
 <g id="Capa_x0020_1">
  <metadata id="CorelCorpID_0Corel-Layer"/>
  <g id="_2933596796896">
   <path class="fil0" d="M972.86 237.33l0 823.23 161.95 0 6.75 -688.28c0.13,-98.9 -16.38,-182.18 105.36,-201.61l238.78 -0.59 0.69 -162.19 -270.6 0c-127.37,10.68 -235.66,112.51 -242.92,229.43z"/>
   <path class="fil0" d="M1735.14 486.87l337.19 0c277.58,0 256.17,404.79 3.44,404.79l-550.02 0 0 168.9 616.93 0c401.84,-0.22 426.69,-754.85 0.42,-754.85l-396.37 0c-73.91,-16.79 -72.37,-121.89 1.69,-135.86l614.06 0.03 0 -168.72c-206.94,0 -507.2,-2.6 -620.81,0 -309.08,7.08 -282.91,476.76 -6.54,485.72z"/>
   <path class="fil0" d="M333.43 486.87l423.5 0 0 405.17 -425.01 -0.37c-210.93,-0.18 -218.64,-404.79 1.51,-404.79zm-244.43 -316.67l504.45 0c90.08,0 168.95,33.82 164.37,134.6l-444.55 0.9c-407.48,22.57 -419.68,730.67 -23.47,754.73l635.84 0.12 0 -768.23c-10.01,-173.5 -128.8,-289.46 -308.67,-292.02l-528.07 0.84 0.1 169.05z"/>
  </g>
 </g>
</svg>
